INPUT - OUTPUT Workshop R & RStudio
…
---
<div class="my-logo-right"> <img src="broom_logo.png" width="100%"/> </div>

## .UA-red[`broom`]  pakket

Functie: .UA-red[`augment()`]

Resultaat: aan de originele data extra informatie toevoegen op basis van het model (geschatte waarden; residuelen; ...)

```r
augment(Model1)
```

```
## # A tibble: 342 × 9
##    .rownames flipper_length_mm body_mass_g .fitted .resid    .hat .sigma .cooksd
##    <chr>                 <int>       <int>   <dbl>  <dbl>   <dbl>  <dbl>   <dbl>
##  1 1                       181        3750    194. -13.0  0.00385   6.89 6.88e-3
##  2 2                       186        3800    195.  -8.78 0.00366   6.91 2.97e-3
##  3 3                       195        3250    186.   8.62 0.00705   6.91 5.57e-3
##  4 5                       193        3450    189.   3.57 0.00550   6.92 7.41e-4
##  5 6                       190        3650    192.  -2.49 0.00431   6.92 2.81e-4
##  6 7                       181        3625    192. -11.1  0.00444   6.90 5.78e-3
##  7 8                       195        4675    208. -13.1  0.00395   6.89 7.19e-3
##  8 9                       193        3475    190.   3.19 0.00533   6.92 5.73e-4
##  9 10                      190        4250    202. -11.7  0.00293   6.89 4.19e-3
## 10 11                      186        3300    187.  -1.14 0.00663   6.92 9.14e-5
## # … with 332 more rows, and 1 more variable: .std.resid <dbl>
```
…
