ICO Workshop R & RStudio
…
Normally we work with a  .SW-greenD[dataframe] in `R` but we can have very complex data-structures as well (e.g., lists, matrices, ...)

In the `tidyverse` ecosystem we work with a simple form of data-structure: a `tibble`

A tibble is a dataframe that fits the **tidy data** principle

.footnotesize[

```r
Friends
```

```
## # A tibble: 108 × 4
##    student occassion condition fluency
##      <dbl>     <dbl>     <dbl>   <dbl>
##  1       1         1         1   101. 
##  2       1         2         1   104. 
##  3       1         3         1   117. 
##  4       2         1         2    98.8
##  5       2         2         2   107. 
##  6       2         3         2   111. 
##  7       3         1         3   105. 
##  8       3         2         3   102. 
##  9       3         3         3   101. 
## 10       4         1         1   102. 
## # … with 98 more rows
```
…
